\relax 
\providecommand\hyper@newdestlabel[2]{}
\catcode `"\active 
\catcode `<\active 
\catcode `>\active 
\@nameuse{es@quoting}
\catcode `'\active 
\providecommand\HyperFirstAtBeginDocument{\AtBeginDocument}
\HyperFirstAtBeginDocument{\ifx\hyper@anchor\@undefined
\global\let\oldcontentsline\contentsline
\gdef\contentsline#1#2#3#4{\oldcontentsline{#1}{#2}{#3}}
\global\let\oldnewlabel\newlabel
\gdef\newlabel#1#2{\newlabelxx{#1}#2}
\gdef\newlabelxx#1#2#3#4#5#6{\oldnewlabel{#1}{{#2}{#3}}}
\AtEndDocument{\ifx\hyper@anchor\@undefined
\let\contentsline\oldcontentsline
\let\newlabel\oldnewlabel
\fi}
\fi}
\global\let\hyper@last\relax 
\gdef\HyperFirstAtBeginDocument#1{#1}
\providecommand\HyField@AuxAddToFields[1]{}
\providecommand\HyField@AuxAddToCoFields[2]{}
\providecommand \oddpage@label [2]{}
\babel@aux{spanish}{}
\@writefile{toc}{\contentsline {chapter}{\numberline {1}Enunciado}{1}{chapter.1}}
\@writefile{lof}{\addvspace {10\p@ }}
\@writefile{lot}{\addvspace {10\p@ }}
\@writefile{toc}{\contentsline {chapter}{\numberline {2}WiringPi y EasyPIO.h}{2}{chapter.2}}
\@writefile{lof}{\addvspace {10\p@ }}
\@writefile{lot}{\addvspace {10\p@ }}
\@writefile{toc}{\contentsline {section}{\numberline {2.1}WiringPi}{2}{section.2.1}}
\@writefile{toc}{\contentsline {section}{\numberline {2.2}EasyPIO.h}{2}{section.2.2}}
\@writefile{toc}{\contentsline {subsection}{Introducci\IeC {\'o}n}{2}{section*.2}}
\@writefile{toc}{\contentsline {subsection}{C\IeC {\'o}digo fuente}{3}{section*.3}}
\@writefile{toc}{\contentsline {chapter}{\numberline {3}Desarrollo}{7}{chapter.3}}
\@writefile{lof}{\addvspace {10\p@ }}
\@writefile{lot}{\addvspace {10\p@ }}
\@writefile{toc}{\contentsline {section}{\numberline {3.1}Ejercicio 1 - Estructura Switch-Case en assembly}{7}{section.3.1}}
\@writefile{toc}{\contentsline {subsection}{C\IeC {\'o}digo fuente}{7}{section*.4}}
\@writefile{toc}{\contentsline {subsection}{Funcionamiento}{8}{section*.5}}
\@writefile{toc}{\contentsline {section}{\numberline {3.2}Ejercicio 2 - Retardo en assembly}{8}{section.3.2}}
\@writefile{toc}{\contentsline {subsection}{C\IeC {\'o}digo fuente}{8}{section*.6}}
\@writefile{toc}{\contentsline {subsection}{Funcionamiento}{9}{section*.7}}
\@writefile{toc}{\contentsline {section}{\numberline {3.3}Ejercicio 3 - Control de acceso al sistema mediante password en c}{9}{section.3.3}}
\@writefile{toc}{\contentsline {subsection}{C\IeC {\'o}digo fuente}{9}{section*.8}}
\@writefile{toc}{\contentsline {subsection}{Funcionamiento}{10}{section*.9}}
\@writefile{toc}{\contentsline {section}{\numberline {3.4}Ejercicio 4 - Bucle repetidor de entradas}{11}{section.3.4}}
\@writefile{toc}{\contentsline {subsection}{C\IeC {\'o}digo fuente}{11}{section*.10}}
\@writefile{toc}{\contentsline {subsection}{Funcionamiento}{11}{section*.11}}
\@writefile{toc}{\contentsline {section}{\numberline {3.5}Ejercicio 5 - Auto fant\IeC {\'a}stico}{11}{section.3.5}}
\@writefile{toc}{\contentsline {subsection}{C\IeC {\'o}digo fuente}{11}{section*.12}}
\@writefile{toc}{\contentsline {subsection}{Funcionamiento}{12}{section*.13}}
\@writefile{toc}{\contentsline {section}{\numberline {3.6}Ejercicio 6 - La carrera}{12}{section.3.6}}
\@writefile{toc}{\contentsline {subsection}{C\IeC {\'o}digo fuente}{12}{section*.14}}
\@writefile{toc}{\contentsline {subsection}{Funcionamiento}{13}{section*.15}}
\@writefile{toc}{\contentsline {section}{\numberline {3.7}Ejercicio 7 - ADC con $I^2C$}{13}{section.3.7}}
\@writefile{toc}{\contentsline {subsection}{C\IeC {\'o}digo fuente}{13}{section*.16}}
\@writefile{toc}{\contentsline {subsection}{Funcionamiento}{14}{section*.17}}
\@writefile{toc}{\contentsline {section}{\numberline {3.8}Ejercicio 8 - Comunicaci\IeC {\'o}n serial}{14}{section.3.8}}
\@writefile{toc}{\contentsline {subsection}{C\IeC {\'o}digo fuente}{14}{section*.18}}
\@writefile{toc}{\contentsline {subsection}{Funcionamiento}{15}{section*.19}}
