\relax 
\providecommand\hyper@newdestlabel[2]{}
\catcode `"\active 
\catcode `<\active 
\catcode `>\active 
\@nameuse{es@quoting}
\catcode `'\active 
\providecommand\HyperFirstAtBeginDocument{\AtBeginDocument}
\HyperFirstAtBeginDocument{\ifx\hyper@anchor\@undefined
\global\let\oldcontentsline\contentsline
\gdef\contentsline#1#2#3#4{\oldcontentsline{#1}{#2}{#3}}
\global\let\oldnewlabel\newlabel
\gdef\newlabel#1#2{\newlabelxx{#1}#2}
\gdef\newlabelxx#1#2#3#4#5#6{\oldnewlabel{#1}{{#2}{#3}}}
\AtEndDocument{\ifx\hyper@anchor\@undefined
\let\contentsline\oldcontentsline
\let\newlabel\oldnewlabel
\fi}
\fi}
\global\let\hyper@last\relax 
\gdef\HyperFirstAtBeginDocument#1{#1}
\providecommand\HyField@AuxAddToFields[1]{}
\providecommand\HyField@AuxAddToCoFields[2]{}
\providecommand \oddpage@label [2]{}
\babel@aux{spanish}{}
\@writefile{toc}{\contentsline {chapter}{\numberline {1}Introducci\IeC {\'o}n}{1}{chapter.1}}
\@writefile{lof}{\addvspace {10\p@ }}
\@writefile{lot}{\addvspace {10\p@ }}
\@writefile{toc}{\contentsline {section}{\numberline {1.1}Enunciado}{1}{section.1.1}}
\@writefile{toc}{\contentsline {section}{\numberline {1.2}Condiciones de presentaci\IeC {\'o}n}{2}{section.1.2}}
\@writefile{toc}{\contentsline {chapter}{\numberline {2}C\IeC {\'o}digo fuente}{3}{chapter.2}}
\@writefile{lof}{\addvspace {10\p@ }}
\@writefile{lot}{\addvspace {10\p@ }}
\@writefile{toc}{\contentsline {chapter}{\numberline {3}Funcionamiento}{22}{chapter.3}}
\@writefile{lof}{\addvspace {10\p@ }}
\@writefile{lot}{\addvspace {10\p@ }}
\@writefile{toc}{\contentsline {section}{\numberline {3.1}Funciones principales}{22}{section.3.1}}
\@writefile{toc}{\contentsline {subsection}{int main (void);}{22}{section*.2}}
\@writefile{toc}{\contentsline {subsection}{char* getch(void);}{22}{section*.3}}
\@writefile{toc}{\contentsline {subsection}{void initTermios (void);}{22}{section*.4}}
\@writefile{toc}{\contentsline {subsection}{void resetTermios(void);}{22}{section*.5}}
\@writefile{toc}{\contentsline {subsection}{short int menu (short int);}{23}{section*.6}}
\@writefile{toc}{\contentsline {section}{\numberline {3.2}Funciones de secuencias de luces}{23}{section.3.2}}
\@writefile{lof}{\contentsline {figure}{\numberline {3.1}{\ignorespaces Disposici\IeC {\'o}n de diodos leds con su n\IeC {\'u}mero representativo\relax }}{23}{figure.caption.7}}
\@writefile{toc}{\contentsline {subsection}{El auto fant\IeC {\'a}stico (autofantastico)}{23}{section*.8}}
\@writefile{toc}{\contentsline {subsection}{El choque (choque)}{23}{section*.9}}
\@writefile{toc}{\contentsline {subsection}{La apilada (apilada)}{23}{section*.10}}
\@writefile{toc}{\contentsline {subsection}{La carrera (carrera)}{24}{section*.11}}
\@writefile{toc}{\contentsline {subsection}{Azar (azar)}{24}{section*.12}}
\@writefile{toc}{\contentsline {subsection}{Anulaci\IeC {\'o}n (anulacion)}{24}{section*.13}}
\@writefile{toc}{\contentsline {subsection}{ZigZag (zigzag)}{24}{section*.14}}
\@writefile{toc}{\contentsline {subsection}{Barras (barras)}{24}{section*.15}}
\@writefile{toc}{\contentsline {section}{\numberline {3.3}Funciones auxiliares utilizadas}{24}{section.3.3}}
\@writefile{toc}{\contentsline {subsection}{char* titulo (int);}{24}{section*.16}}
\@writefile{toc}{\contentsline {subsection}{int kbhit(void);}{24}{section*.17}}
\@writefile{toc}{\contentsline {subsection}{int delayInter(int, shor int);}{24}{section*.18}}
